set4
…
b. Focus only on the 2014 election. Report the proportion of votes for each party in the Candidate election. Again, produce a nice table and sort it by percent of vote.

nzge_b <- nzge %>% filter(election_year==2014, voting_type=='Candidate') %>% group_by(party) %>% summarise(total_votes = sum(votes, na.rm = TRUE),.groups = "drop") %>% mutate(percent = round(100*total_votes / sum(total_votes),1)) %>% arrange(desc(percent))

nzge_b 

# A tibble: 25 × 3
   party                    total_votes percent
   <chr>                          <dbl>   <dbl>
 1 National Party               1081787    45.5
 2 Labour Party                  801287    33.7
 3 Green Party                   165718     7  
 4 Conservative Party             81075     3.4
 5 New Zealand First Party        73384     3.1
 6 Maori Party                    42108     1.8
 7 MANA Movement                  32333     1.4
 8 ACT New Zealand                27778     1.2
 9 Informal Candidate Votes       27886     1.2
10 United Future                  14722     0.6
# ℹ 15 more rows
…
